# 3ds Max Wavefront OBJ Exporter v0.97b - (c)2007 guruware
# File Created: 22.06.2016 18:12:02

newmtl 04___Default
	Ns 10.0000
	Ni 1.5000
	d 1.0000
	Tr 0.0000
	Tf 1.0000 1.0000 1.0000 
	illum 2
	Ka 0.5882 0.5882 0.5882
	Kd 0.5882 0.5882 0.5882
	Ks 0.0000 0.0000 0.0000
	Ke 0.0000 0.0000 0.0000

newmtl Material__9650
	Ns 10.0000
	Ni 1.5000
	d 1.0000
	Tr 0.0000
	Tf 1.0000 1.0000 1.0000 
	illum 2
	Ka 0.5880 0.5880 0.5880
	Kd 0.5880 0.5880 0.5880
	Ks 0.0000 0.0000 0.0000
	Ke 0.0000 0.0000 0.0000
	map_Ka D:\3D models\Air Conflicts - Vietnam\planes\mig21\p3dm.ru_1.dds
	map_Kd D:\3D models\Air Conflicts - Vietnam\planes\mig21\p3dm.ru_1.dds

newmtl Material__9651
	Ns 10.0000
	Ni 1.5000
	d 1.0000
	Tr 0.0000
	Tf 1.0000 1.0000 1.0000 
	illum 2
	Ka 0.5880 0.5880 0.5880
	Kd 0.5880 0.5880 0.5880
	Ks 0.0000 0.0000 0.0000
	Ke 0.0000 0.0000 0.0000
	map_Ka D:\3D models\Air Conflicts - Vietnam\planes\mig21\p3dm.ru_336a0f03.dds
	map_Kd D:\3D models\Air Conflicts - Vietnam\planes\mig21\p3dm.ru_336a0f03.dds

newmtl 03___Default
	Ns 10.0000
	Ni 1.5000
	d 0.5000
	Tr 0.5000
	Tf 0.5000 0.5000 0.5000 
	illum 2
	Ka 0.5882 0.5882 0.5882
	Kd 0.5882 0.5882 0.5882
	Ks 0.0000 0.0000 0.0000
	Ke 0.0000 0.0000 0.0000
