# 3ds Max Wavefront OBJ Exporter v0.97b - (c)2007 guruware
# File Created: 12.04.2015 16:31:54

newmtl a2431cff_dds
	Ns 10.000000
	Ni 1.500000
	d 1.000000
	Tr 0.000000
	Tf 1.000000 1.000000 1.000000 
	illum 2
	Ka 0.700000 0.700000 0.700000
	Kd 0.700000 0.700000 0.700000
	Ks 0.100000 0.100000 0.100000
	Ke 0.000000 0.000000 0.000000
	map_Ka C:\Users\vados\Desktop\3D models\Top Gun Hard Lock\Air\Sukhoi PAK FA\Textures\a2431cff.dds
	map_Kd C:\Users\vados\Desktop\3D models\Top Gun Hard Lock\Air\Sukhoi PAK FA\Textures\a2431cff.dds
	map_d C:\Users\vados\Desktop\3D models\Top Gun Hard Lock\Air\Sukhoi PAK FA\Textures\a2431cff.dds

newmtl ea40f099_dds
	Ns 10.000000
	Ni 1.500000
	d 1.000000
	Tr 0.000000
	Tf 1.000000 1.000000 1.000000 
	illum 2
	Ka 0.700000 0.700000 0.700000
	Kd 0.700000 0.700000 0.700000
	Ks 0.100000 0.100000 0.100000
	Ke 0.000000 0.000000 0.000000

newmtl fd2239d2_dds
	Ns 10.000000
	Ni 1.500000
	d 1.000000
	Tr 0.000000
	Tf 1.000000 1.000000 1.000000 
	illum 2
	Ka 0.700000 0.700000 0.700000
	Kd 0.700000 0.700000 0.700000
	Ks 0.100000 0.100000 0.100000
	Ke 0.000000 0.000000 0.000000
	map_Ka C:\Users\vados\Desktop\3D models\Top Gun Hard Lock\Air\Sukhoi PAK FA\Textures\fd2239d2.dds
	map_Kd C:\Users\vados\Desktop\3D models\Top Gun Hard Lock\Air\Sukhoi PAK FA\Textures\fd2239d2.dds
	map_d C:\Users\vados\Desktop\3D models\Top Gun Hard Lock\Air\Sukhoi PAK FA\Textures\fd2239d2.dds

newmtl 4c49b88f_dds
	Ns 10.000000
	Ni 1.500000
	d 1.000000
	Tr 0.000000
	Tf 1.000000 1.000000 1.000000 
	illum 2
	Ka 0.700000 0.700000 0.700000
	Kd 0.700000 0.700000 0.700000
	Ks 0.100000 0.100000 0.100000
	Ke 0.000000 0.000000 0.000000
	map_Ka C:\Users\vados\Desktop\3D models\Top Gun Hard Lock\Air\Sukhoi PAK FA\Textures\4c49b88f.dds
	map_Kd C:\Users\vados\Desktop\3D models\Top Gun Hard Lock\Air\Sukhoi PAK FA\Textures\4c49b88f.dds
	map_d C:\Users\vados\Desktop\3D models\Top Gun Hard Lock\Air\Sukhoi PAK FA\Textures\4c49b88f.dds
