# 3ds Max Wavefront OBJ Exporter v0.97b - (c)2007 guruware
# File Created: 29.04.2015 16:36:50

newmtl 5ad71dfd_dds
	Ns 10.000000
	Ni 1.500000
	d 1.000000
	Tr 0.000000
	Tf 1.000000 1.000000 1.000000 
	illum 2
	Ka 0.700000 0.700000 0.700000
	Kd 0.700000 0.700000 0.700000
	Ks 0.100000 0.100000 0.100000
	Ke 0.000000 0.000000 0.000000
	map_Ka C:\Users\vados\Desktop\3D models\Ace Combat Assault Horizon\air\F-4E Phantom II\textures\texture_0001.dds
	map_Kd C:\Users\vados\Desktop\3D models\Ace Combat Assault Horizon\air\F-4E Phantom II\textures\texture_0001.dds

newmtl f5ebd7ae_dds
	Ns 10.000000
	Ni 1.500000
	d 1.000000
	Tr 0.000000
	Tf 1.000000 1.000000 1.000000 
	illum 2
	Ka 0.700000 0.700000 0.700000
	Kd 0.700000 0.700000 0.700000
	Ks 0.100000 0.100000 0.100000
	Ke 0.000000 0.000000 0.000000
	map_Ka C:\Users\vados\Desktop\3D models\Ace Combat Assault Horizon\air\F-4E Phantom II\textures\texture_0008.dds
	map_Kd C:\Users\vados\Desktop\3D models\Ace Combat Assault Horizon\air\F-4E Phantom II\textures\texture_0008.dds

newmtl Material__29666
	Ns 10.000000
	Ni 1.500000
	d 1.000000
	Tr 0.000000
	Tf 1.000000 1.000000 1.000000 
	illum 2
	Ka 0.588000 0.588000 0.588000
	Kd 0.588000 0.588000 0.588000
	Ks 0.000000 0.000000 0.000000
	Ke 0.000000 0.000000 0.000000
	map_Ka C:\Users\vados\Desktop\3D models\Ace Combat Assault Horizon\air\F-4E Phantom II\textures\texture_0007.dds
	map_Kd C:\Users\vados\Desktop\3D models\Ace Combat Assault Horizon\air\F-4E Phantom II\textures\texture_0007.dds

newmtl Material__29664
	Ns 10.000000
	Ni 1.500000
	d 1.000000
	Tr 0.000000
	Tf 1.000000 1.000000 1.000000 
	illum 2
	Ka 0.588000 0.588000 0.588000
	Kd 0.588000 0.588000 0.588000
	Ks 0.000000 0.000000 0.000000
	Ke 0.000000 0.000000 0.000000
	map_Ka C:\Users\vados\Desktop\3D models\Ace Combat Assault Horizon\air\F-4E Phantom II\textures\texture_0006.dds
	map_Kd C:\Users\vados\Desktop\3D models\Ace Combat Assault Horizon\air\F-4E Phantom II\textures\texture_0006.dds

newmtl Material__29665
	Ns 10.000000
	Ni 1.500000
	d 1.000000
	Tr 0.000000
	Tf 1.000000 1.000000 1.000000 
	illum 2
	Ka 0.588000 0.588000 0.588000
	Kd 0.588000 0.588000 0.588000
	Ks 0.000000 0.000000 0.000000
	Ke 0.000000 0.000000 0.000000
	map_Ka C:\Users\vados\Desktop\3D models\Ace Combat Assault Horizon\air\F-4E Phantom II\textures\texture_0006.dds
	map_Kd C:\Users\vados\Desktop\3D models\Ace Combat Assault Horizon\air\F-4E Phantom II\textures\texture_0006.dds
